<?xml version="1.0" encoding="UTF-8" standalone="no"?>
<svg
   xmlns:dc="http://purl.org/dc/elements/1.1/"
   xmlns:cc="http://creativecommons.org/ns#"
   xmlns:rdf="http://www.w3.org/1999/02/22-rdf-syntax-ns#"
   xmlns:svg="http://www.w3.org/2000/svg"
   xmlns="http://www.w3.org/2000/svg"
   xmlns:sodipodi="http://sodipodi.sourceforge.net/DTD/sodipodi-0.dtd"
   xmlns:inkscape="http://www.inkscape.org/namespaces/inkscape"
   width="210mm"
   height="297mm"
   viewBox="0 0 210 297"
   version="1.1"
   id="svg8"
   sodipodi:docname="2x2_puzzle.svg"
   inkscape:version="1.0.2 (e86c870879, 2021-01-15)">
  <defs
     id="defs2" />
  <sodipodi:namedview
     id="base"
     pagecolor="#ffffff"
     bordercolor="#666666"
     borderopacity="1.0"
     inkscape:pageopacity="0"
     inkscape:pageshadow="2"
     inkscape:zoom="1.4617238"
     inkscape:cx="396.85039"
     inkscape:cy="561.25984"
     inkscape:document-units="mm"
     inkscape:current-layer="g1185"
     inkscape:document-rotation="0"
     showgrid="false"
     inkscape:window-width="1920"
     inkscape:window-height="1007"
     inkscape:window-x="0"
     inkscape:window-y="0"
     inkscape:window-maximized="1"
     showborder="false" />
  <metadata
     id="metadata5">
    <rdf:RDF>
      <cc:Work
         rdf:about="">
        <dc:format>image/svg+xml</dc:format>
        <dc:type
           rdf:resource="http://purl.org/dc/dcmitype/StillImage" />
        <dc:title />
      </cc:Work>
    </rdf:RDF>
  </metadata>
  <g
     inkscape:label="Layer 1"
     inkscape:groupmode="layer"
     id="layer1">
    <g
       inkscape:label="Jigsaw:X2:Y2"
       transform="translate(35,78.5)"
       id="g1185">
      <g
         inkscape:label="X_Gridlines"
         id="g1178">
        <path
           style="fill:none;stroke:#0000ff;stroke-width:0.1;stroke-linecap:butt;stroke-linejoin:miter"
           id="XDiv1"
           d="m 0,70 c 0,0 14.31426,8.939985 24.892391,3.943206 10.578131,-4.996779 -4.234173,-7.0287 -2.849649,-16.958509 1.384525,-9.929808 24.574484,-6.900479 25.963713,2.64841 1.389228,9.548889 -8.4849,7.836934 -0.158135,11.83852 8.326766,4.001586 36.075044,4.981899 46.560797,-0.08046 10.485753,-5.062354 0.690173,-1.775411 0.783723,-12.894504 0.09355,-11.119093 19.21587,-7.792987 20.53031,1.447326 1.31445,9.240312 -5.77613,9.04192 2.70747,13.583353 C 126.91421,78.06878 140,70 140,70"
           transform="rotate(90,70,70)" />
      </g>
      <g
         inkscape:label="Y_Gridlines"
         id="g1181">
        <path
           style="fill:none;stroke:#0000ff;stroke-width:0.1;stroke-linecap:butt;stroke-linejoin:miter"
           id="YDiv1"
           d="m 0,70 c 0,0 13.632169,-8.189686 24.744906,-4.138103 11.112737,4.051583 -2.824895,6.66868 -2.051918,17.558167 0.772976,10.889487 23.515973,4.802731 24.034537,-3.619072 0.518565,-8.421802 -6.97754,-7.177643 1.611903,-11.889218 8.589443,-4.711574 36.200303,-6.847948 46.61997,-1.745151 10.419662,5.102796 -1.611259,2.541471 -1.398022,13.647359 0.213237,11.105887 23.367164,8.763724 24.068024,0.253439 0.70086,-8.510285 -10.45845,-9.687877 -1.43462,-14.790123 C 125.2186,60.175052 140,70 140,70" />
      </g>
      <path
         style="fill:none;stroke:#0000ff;stroke-width:0.1;stroke-linecap:butt;stroke-linejoin:miter"
         inkscape:label="innerborder"
         d="M 0,10 C 0,5 5,0 10,0 c 5,0 115,0 120,0 5,0 10,5 10,10 0,5 0,115 0,120 0,5 -5,10 -10,10 -5,0 -115,0 -120,0 C 5,140 0,135 0,130 0,125 0,15 0,10"
         id="path1183" />
      <path
         style="fill:#ffffff;fill-opacity:0.993377;fill-rule:evenodd;stroke:#000000;stroke-width:0.337884;stroke-linejoin:round;paint-order:stroke fill markers"
         d="m 243.23337,633.49484 c -8.39645,-0.77287 -16.4913,-4.39135 -20.1456,-9.00527 -7.93238,-10.01544 -5.88905,-28.71247 4.77623,-43.70393 1.18577,-1.66675 4.3323,-5.75787 6.99229,-9.09137 6.04452,-7.57502 7.61515,-10.59416 7.28714,-14.00777 -0.20056,-2.08731 -0.58326,-2.82905 -2.43112,-4.71188 -3.88574,-3.95928 -13.64525,-8.23258 -23.60684,-10.33649 -6.41775,-1.35543 -18.76294,-1.84666 -25.8594,-1.02895 -16.51771,1.90328 -32.13631,6.60245 -48.93064,14.72174 -4.5496,2.19952 -8.35661,3.99913 -8.46003,3.99913 -0.10341,0 -0.18467,-51.65036 -0.18056,-114.77858 0.008,-125.67549 -0.19025,-117.36934 2.97024,-124.33965 3.98819,-8.79576 11.4807,-16.49644 20.00326,-20.55904 7.89091,-3.7615 -2.7358,-3.46747 125.31973,-3.46747 h 115.25851 l -2.47829,4.41942 c -7.87777,14.04808 -14.68425,33.70487 -16.85568,48.67841 -0.90211,6.22065 -1.01931,17.82851 -0.23682,23.4544 1.38852,9.9831 6.87044,22.77384 12.0125,28.02828 5.95967,6.08993 9.45042,5.22506 20.52834,-5.08607 13.06469,-12.16037 19.79003,-15.87563 29.89264,-16.5135 10.24074,-0.64659 17.52461,2.69732 22.51515,10.33636 4.07678,6.24034 6.03603,12.5629 6.96423,22.47376 2.36053,25.20459 -9.24746,54.38029 -24.76447,62.24335 -5.57821,2.82669 -13.2839,3.81016 -20.19882,2.57796 -6.154,-1.09661 -10.4724,-3.40397 -16.13099,-8.61892 -5.11777,-4.71653 -6.44992,-5.36619 -8.39297,-4.09305 -3.9403,2.58179 -9.71263,14.3731 -12.87561,26.30143 -2.61229,9.85152 -5.46268,27.77093 -6.30683,39.64849 -0.23492,3.3055 -0.3643,5.0479 -0.42068,5.96547 -0.02,0.32522 0.0161,0.51732 -0.22463,0.54554 -0.54723,0.0642 -1.67802,0.1541 -2.75835,0.28767 -34.6794,4.28763 -55.27923,10.27431 -70.03397,20.35329 -8.37944,5.72401 -8.99947,7.84511 -4.47981,15.32517 5.45006,9.01989 6.61668,13.13444 6.36479,22.44802 -0.15973,5.90593 -0.22612,6.22176 -2.10709,10.02395 -8.13653,16.44718 -38.61557,29.75518 -63.00585,27.5101 z"
         id="path1128"
         transform="matrix(0.26458333,0,0,0.26458333,-35,-78.5)"
         sodipodi:nodetypes="sssssssssscssscssssssssssssssssssssss" />
      <path
         style="fill:#ffffff;fill-opacity:0.993377;fill-rule:evenodd;stroke:#000000;stroke-width:0.337884;stroke-linejoin:round;paint-order:stroke fill markers"
         d="m 517.78803,625.7972 c -11.1725,-1.63154 -18.27802,-4.70898 -24.03288,-10.40874 -5.60186,-5.54822 -7.55398,-10.37648 -7.51676,-18.59151 0.035,-7.71051 2.21737,-15.59349 5.8703,-21.20353 1.03463,-1.58895 3.5778,-4.47999 5.65149,-6.42453 9.14994,-8.58009 9.67379,-9.15 9.67379,-10.52434 0,-2.91611 -5.98228,-7.38511 -16.28962,-12.169 -10.32582,-4.79247 -22.20965,-7.65499 -40.44742,-9.74279 -13.53422,-1.54935 -63.56388,-0.73813 -69.6583,0.67983 -0.18151,0.0422 -0.3393,-0.0153 -0.90248,0.0523 -0.24844,0.0298 -0.15271,-0.33995 -0.12945,-0.71154 0.0765,-1.22195 0.2481,-4.18542 0.91951,-10.65657 1.64711,-15.87508 4.41664,-30.65123 7.59442,-40.51801 2.74985,-8.5381 8.06152,-18.23655 10.90911,-19.91866 1.80789,-1.06794 2.55475,-0.69035 7.24151,3.66109 4.68945,4.35394 8.47391,6.75501 12.96653,8.22669 3.17616,1.04043 4.63211,1.20674 10.26698,1.17273 5.66888,-0.0342 7.05609,-0.21351 10.15306,-1.31235 13.78767,-4.89205 24.29303,-21.3065 28.22743,-44.10489 3.25274,-18.84843 -0.23319,-37.19285 -8.80991,-46.36138 -4.9851,-5.32909 -10.2032,-7.42924 -18.4589,-7.42924 -5.72025,0 -9.3502,0.90151 -15.15229,3.76312 -4.99219,2.46217 -8.6637,5.28111 -17.79629,13.66378 -7.10906,6.5253 -9.7338,8.05216 -13.25964,7.71337 -1.52519,-0.14655 -3.00319,-0.68737 -3.99078,-1.46027 -5.02044,-3.92908 -10.67291,-15.31123 -13.0257,-26.22933 -1.1508,-5.34027 -1.29347,-21.87136 -0.23954,-27.75525 2.7643,-15.43252 8.02782,-30.58838 15.87455,-45.7094 l 3.14518,-6.06092 115.64484,-0.12736 c 128.55404,-0.14157 117.89497,-0.42473 125.77942,3.34134 10.54672,5.03773 19.23711,15.39176 22.00625,26.21899 0.94887,3.71006 0.97472,6.85581 0.97472,118.63517 0,63.15323 -0.0949,114.82406 -0.21081,114.82406 -0.11594,0 -1.99104,-1.05716 -4.16688,-2.34925 -13.36086,-7.93416 -30.61304,-15.07181 -44.282,-18.32055 -15.63881,-3.71692 -31.29805,-2.2415 -41.68161,3.92726 -8.98521,5.33802 -12.25653,8.88264 -12.576,13.62666 -0.17096,2.53888 -10e-4,3.17813 1.50041,5.64126 0.93128,1.52786 3.6241,5.16441 5.98406,8.08122 8.0932,10.0029 10.38173,14.98015 10.92298,23.75611 0.48433,7.85288 -1.55213,12.9507 -7.25596,18.16368 -6.50372,5.94403 -16.52036,10.2627 -28.69489,12.37178 -6.38803,1.10664 -17.19417,1.37717 -22.72843,0.56898 z"
         id="path1130"
         transform="matrix(0.26458333,0,0,0.26458333,-35,-78.5)"
         sodipodi:nodetypes="sssssssssssssssssssssssssssscssssssssssssssss" />
      <path
         style="fill:#ffffff;fill-opacity:0.993377;fill-rule:evenodd;stroke:#000000;stroke-width:0.337884;stroke-linejoin:round;paint-order:stroke fill markers"
         d="m 396.39665,824.53009 c -0.41955,-0.6403 -1.95702,-3.54151 -3.41661,-6.44714 -9.46415,-18.8404 -14.17789,-35.58531 -14.21232,-50.48728 -0.0157,-6.79822 0.54812,-11.01224 2.15524,-16.10831 2.6193,-8.30562 10.09762,-19.96026 14.15352,-22.05765 1.97756,-1.02263 5.03921,-0.90046 8.40942,0.33559 12.00507,4.40292 13.05275,4.6423 21.32685,4.87292 9.08252,0.25314 13.31667,-0.42076 18.4158,-2.93106 10.98282,-5.40682 19.94924,-18.95314 23.04908,-34.82217 1.0695,-5.47511 0.83386,-15.71657 -0.46831,-20.35416 -4.2311,-15.06862 -14.25305,-21.53626 -31.08065,-20.05782 -10.8155,0.95023 -16.89177,3.53273 -24.95392,10.60578 -2.85396,2.50381 -5.47398,4.55239 -5.82226,4.55239 -1.10616,0 -2.81005,-1.48653 -4.47101,-3.90065 -2.5581,-3.71808 -9.26798,-17.6265 -10.9764,-22.75221 -4.22685,-12.68163 -7.02543,-28.49001 -8.73845,-49.36112 -0.73547,-8.96071 -0.78895,-50.03456 -0.0714,-54.80078 l 0.21055,-2.74629 6.77368,-0.73036 c 4.59106,-0.49502 14.23522,-0.71644 32.07235,-0.75762 21.74947,-0.0502 26.62225,0.0759 33.08249,0.85582 14.56315,1.75826 26.27804,4.36294 34.84259,7.74688 8.72636,3.44787 17.96818,8.98872 19.59984,11.7509 1.28652,2.1779 0.51887,3.37809 -5.53852,8.65929 -6.29384,5.48735 -8.78337,8.52668 -11.35256,13.85972 -2.56912,5.33289 -3.58862,10.24822 -3.61415,17.42513 -0.0169,4.75343 0.18594,6.40466 1.11684,9.09137 4.14313,11.9577 16.0976,19.13977 34.52054,20.73946 20.01456,1.73788 42.44021,-5.5248 51.1253,-16.55723 3.6103,-4.58607 4.51952,-7.42389 4.49547,-14.03121 -0.0343,-9.44171 -2.48297,-15.00082 -11.5685,-26.26397 -2.689,-3.3335 -5.31977,-6.90418 -5.84615,-7.93483 -1.46936,-2.87698 -1.26809,-6.27671 0.5404,-9.12842 2.8072,-4.42648 12.10791,-10.23533 20.49827,-12.80238 4.21139,-1.28849 5.16022,-1.38499 13.86468,-1.41018 7.02357,-0.0203 10.47272,0.19683 13.8896,0.87449 6.52679,1.29445 14.27229,3.53846 21.22901,6.15043 6.67396,2.5058 23.45096,10.70059 28.4011,13.87262 l 3.16311,2.0269 -0.13265,116.05008 -0.13264,116.05008 -1.41814,4.04061 c -4.48799,12.78737 -15.02141,22.91312 -27.93105,26.85005 -2.82033,0.8601 -9.01777,0.91502 -118.70148,1.05199 l -115.72579,0.14452 z"
         id="path1132"
         transform="matrix(0.26458333,0,0,0.26458333,-35,-78.5)"
         sodipodi:nodetypes="ssssssssssssssssscsssssssssssssssssssscccssscs" />
      <path
         style="fill:#ffffff;fill-opacity:0.993377;fill-rule:evenodd;stroke:#000000;stroke-width:0.337884;stroke-linejoin:round;paint-order:stroke fill markers"
         d="m 165.15277,825.10769 c -11.62973,-1.94385 -23.4756,-11.27665 -29.01388,-22.85871 -3.88346,-8.12137 -3.61288,1.76343 -3.45882,-126.35716 l 0.13786,-114.65231 5.05077,-2.62117 c 14.20136,-7.37002 31.22233,-13.14974 46.1252,-15.66249 7.44195,-1.25478 24.72186,-1.26173 30.93742,-0.0124 10.17629,2.04537 21.0061,6.75992 24.67743,10.74284 3.8539,4.18099 2.75539,7.66562 -5.80441,18.41239 -10.99383,13.80267 -14.60486,21.18321 -15.90509,32.50829 -1.69545,14.76752 4.7938,24.61179 18.76869,28.47233 5.16483,1.42677 20.21386,1.26822 27.16621,-0.28622 22.27433,-4.9802 39.86172,-16.69593 44.34152,-29.53783 0.71137,-2.03924 0.89979,-4.01879 0.85027,-8.93322 -0.0761,-7.54923 -1.29727,-12.01068 -5.04623,-18.43528 -3.81217,-6.53294 -4.23407,-7.4506 -4.23407,-9.20945 0,-3.11362 5.26141,-7.53107 15.65737,-13.14584 11.64074,-6.28706 34.67042,-11.99033 60.79971,-15.05696 l 2.96848,-0.34839 -0.38617,8.02118 c -0.5462,11.34492 -0.4153,37.43746 0.2328,46.40698 1.61251,22.31652 4.33178,38.58656 8.66745,51.85944 1.75658,5.37744 7.94863,18.34719 10.97376,22.9854 2.3637,3.6241 4.08258,4.95088 5.84194,4.5093 0.67214,-0.16869 3.06406,-1.99786 5.31539,-4.06482 4.95865,-4.55257 8.66461,-6.86955 13.67781,-8.55141 5.07792,-1.70357 9.2946,-2.33231 15.67267,-2.33688 10.60995,-0.008 17.41507,3.2938 22.29426,10.81573 5.69186,8.77477 6.55594,23.6983 2.13757,36.91801 -4.68678,14.02278 -13.41741,24.1706 -23.95831,27.84731 -3.0799,1.07428 -5.00919,1.365 -10.45724,1.57575 -8.58706,0.33217 -12.75538,-0.34475 -21.35116,-3.46733 -9.82344,-3.56856 -12.52452,-3.29931 -16.88283,1.68289 -2.7581,3.15293 -7.82881,11.69511 -9.56698,16.11666 -2.61889,6.66192 -3.07783,9.57581 -3.05096,19.37141 0.0217,7.89825 0.20541,9.94871 1.40008,15.62407 2.39328,11.36945 8.53097,27.66578 14.25252,37.84222 1.22728,2.18285 2.23141,4.05795 2.23141,4.16688 0,0.40202 -228.63579,0.0644 -231.06244,-0.34118 z"
         id="path1134"
         transform="matrix(0.26458333,0,0,0.26458333,-35,-78.5)" />
    </g>
  </g>
</svg>
